[
  {"name":"0","data":"186"},
  {"name":"1","data":"193"},
  {"name":"2","data":"200"},
  {"name":"3","data":"207"},
  {"name":"4","data":"213"},
  {"name":"5","data":"220"},
  {"name":"6","data":"227"},
  {"name":"7","data":"233"},
  {"name":"8","data":"240"},
  {"name":"9","data":"247"},
  {"name":"10","data":"253"},
  {"name":"11","data":"259"},
  {"name":"12","data":"265"},
  {"name":"13","data":"272"},
  {"name":"14","data":"278"},
  {"name":"15","data":"284"},
  {"name":"16","data":"291"},
  {"name":"17","data":"297"},
  {"name":"18","data":"303"},
  {"name":"19","data":"309"},
  {"name":"20","data":"315"},
  {"name":"21","data":"321"},
  {"name":"22","data":"327"},
  {"name":"23","data":"333"},
  {"name":"24","data":"339"},
  {"name":"25","data":"345"},
  {"name":"26","data":"350"},
  {"name":"27","data":"356"},
  {"name":"28","data":"362"},
  {"name":"29","data":"368"},
  {"name":"30","data":"373"},
  {"name":"31","data":"379"},
  {"name":"32","data":"384"},
  {"name":"33","data":"390"},
  {"name":"34","data":"395"},
  {"name":"35","data":"401"},
  {"name":"36","data":"406"},
  {"name":"37","data":"412"},
  {"name":"38","data":"417"},
  {"name":"39","data":"422"},
  {"name":"40","data":"428"},
  {"name":"41","data":"433"},
  {"name":"42","data":"438"},
  {"name":"43","data":"444"},
  {"name":"44","data":"449"},
  {"name":"45","data":"454"},
  {"name":"46","data":"460"},
  {"name":"47","data":"465"},
  {"name":"48","data":"470"},
  {"name":"49","data":"475"},
  {"name":"50","data":"481"},
  {"name":"51","data":"486"},
  {"name":"52","data":"491"},
  {"name":"53","data":"497"},
  {"name":"54","data":"502"},
  {"name":"55","data":"507"},
  {"name":"56","data":"513"},
  {"name":"57","data":"518"},
  {"name":"58","data":"523"},
  {"name":"59","data":"528"},
  {"name":"60","data":"533"},
  {"name":"61","data":"538"},
  {"name":"62","data":"543"},
  {"name":"63","data":"548"},
  {"name":"64","data":"553"},
  {"name":"65","data":"559"},
  {"name":"66","data":"564"},
  {"name":"67","data":"569"},
  {"name":"68","data":"575"},
  {"name":"69","data":"580"},
  {"name":"70","data":"585"},
  {"name":"71","data":"590"},
  {"name":"72","data":"596"},
  {"name":"73","data":"601"},
  {"name":"74","data":"606"},
  {"name":"75","data":"612"},
  {"name":"76","data":"617"},
  {"name":"77","data":"623"},
  {"name":"78","data":"628"},
  {"name":"79","data":"634"},
  {"name":"80","data":"639"},
  {"name":"81","data":"645"},
  {"name":"82","data":"650"},
  {"name":"83","data":"656"},
  {"name":"84","data":"661"},
  {"name":"85","data":"667"},
  {"name":"86","data":"673"},
  {"name":"87","data":"678"},
  {"name":"88","data":"684"},
  {"name":"89","data":"690"},
  {"name":"90","data":"696"},
  {"name":"91","data":"701"},
  {"name":"92","data":"706"},
  {"name":"93","data":"712"},
  {"name":"94","data":"717"},
  {"name":"95","data":"722"},
  {"name":"96","data":"730"},
  {"name":"97","data":"735"},
  {"name":"98","data":"741"},
  {"name":"99","data":"747"},
  {"name":"100","data":"754"}
]
